3 Часть 3 Обработка и очистка данных | R Course
…
Мы видим, что NA у нас есть только в столбце с Озоном и Радиацией. Их и будем убирать. Мы договорились, что нам нужно заполнить каждый пропуск средним значением величины в конкретном месяце. То есть, если у нас пропуск в Озоне за май, то мы должны поставить туда среднее значение Озона за май. Если пропуск в Радиации за июль - ставим среднее значение Радиации именно за июль. С одной стороны, звучит несложно, но как это сделать максимально красиво? Будем пользоваться только функциями библиотеки dplyr.

aq <- airquality %>% #берем исходную таблицу
  group_by(Month) %>% #группируем по месяцам
  mutate(Ozone = replace(Ozone, is.na(Ozone), mean(Ozone, na.rm = TRUE))) %>% #заполняем пропуски в Озоне средними значениями по месяцам
  mutate(Solar.R = replace(Solar.R, is.na(Solar.R), mean(Solar.R, na.rm = TRUE))) #заполняем пропуски в Радиации средними значениями по месяцам

aq

## # A tibble: 153 x 6
## # Groups:   Month [5]
##    Ozone Solar.R  Wind  Temp Month   Day
##    <dbl>   <dbl> <dbl> <int> <int> <int>
##  1  41      190    7.4    67     5     1
##  2  36      118    8      72     5     2
##  3  12      149   12.6    74     5     3
##  4  18      313   11.5    62     5     4
##  5  23.6    181.  14.3    56     5     5
##  6  28      181.  14.9    66     5     6
##  7  23      299    8.6    65     5     7
##  8  19       99   13.8    59     5     8
##  9   8       19   20.1    61     5     9
## 10  23.6    194    8.6    69     5    10
## # ... with 143 more rows
…
distinct() для извлечения уникальных строк

sample_frac() для извлечения случайного набора строк

slice() для извлечения заданных строк

3.2.4 arrange()

Мы решили все наши задания, но хотелось бы обратить внимание еще на одну функцию библиотеки dplyr - функцию arrange(). Ее задача проста - она упорядочивает строки по значениям некоторого столбца. Синтакис крайне прост: где упорядочиваем и по каким значениям упорядочиваем. Вот пример:

aq %>%
  ungroup() %>% #Убираем группировку
  arrange(desc(Month)) #Сортируем по убыванию месяца

## # A tibble: 153 x 6
##    Ozone Solar.R  Wind  Temp Month   Day
##    <dbl>   <dbl> <dbl> <int> <int> <int>
##  1    96     167   6.9    91     9     1
##  2    78     197   5.1    92     9     2
##  3    73     183   2.8    93     9     3
##  4    91     189   4.6    93     9     4
##  5    47      95   7.4    87     9     5
##  6    32      92  15.5    84     9     6
##  7    20     252  10.9    80     9     7
##  8    23     220  10.3    78     9     8
##  9    21     230  10.9    75     9     9
## 10    24     259   9.7    73     9    10
## # ... with 143 more rows
…
